Draw evenly-spaced and non-overlapping curves in a flow field • rlefer
…
library(rlefer)
curves <- even_spaced_curves(
  45, 24,
  100,
  30,
  5,
  0.01 * 240,
  0.5,
  flow_field
)

curves

# A tibble: 1,627 × 6
   curve_id steps_taken     x     y direction_id step_ids
      <dbl>       <dbl> <dbl> <dbl>        <dbl>    <dbl>
 1        0          30  45    24              0        0
 2        0          30  42.7  23.3            0        1
 3        0          30  40.4  22.7            0        2
 4        0          30  38.1  22.1            0        3
 5        0          30  35.7  21.5            0        4
 6        0          30  33.4  20.8            0        5
 7        0          30  31.1  20.2            0        6
 8        0          30  28.8  19.6            0        7
 9        0          30  26.5  18.9            0        8
10        0          30  24.2  18.3            0        9
# ℹ 1,617 more rows
# ℹ Use `print(n = ...)` to see more rows
…
